traffic_light_controller/traffic_light_controller.vcd
$date
	Wed Jan 15 22:23:48 2025
$end
$version
	Icarus Verilog
$end
$timescale
	1ps
$end
$scope module traffic_light_controller_tb $end
$var wire 3 ! light_S [2:0] $end
$var wire 3 " light_MT [2:0] $end
$var wire 3 # light_M2 [2:0] $end
$var wire 3 $ light_M1 [2:0] $end
$var reg 1 % clk $end
$var reg 1 & rst $end
$scope module dut $end
$var wire 1 % clk $end
$var wire 1 & rst $end
$var parameter 32 ' S1 $end
$var parameter 32 ( S2 $end
$var parameter 32 ) S3 $end
$var parameter 32 * S4 $end
$var parameter 32 + S5 $end
$var parameter 32 , S6 $end
$var parameter 32 - sec2 $end
$var parameter 32 . sec3 $end
$var parameter 32 / sec5 $end
$var parameter 32 0 sec7 $end
$var reg 4 1 count [3:0] $end
$var reg 3 2 light_M1 [2:0] $end
$var reg 3 3 light_M2 [2:0] $end
$var reg 3 4 light_MT [2:0] $end
$var reg 3 5 light_S [2:0] $end
$var reg 3 6 ps [2:0] $end
$upscope $end
$upscope $end
$enddefinitions $end
$comment Show the parameter values. $end
$dumpall
b111 0
b101 /
b11 .
b10 -
b101 ,
b100 +
b11 *
b10 )
b1 (
b0 '
$end
#0
$dumpvars
b0 6
b100 5
b100 4
b1 3
b1 2
b0 1
1&
0%
b1 $
b1 #
b100 "
b100 !
$end
#5000
b100 #
b100 3
b100 $
b100 2
1%
#10000
0%
#15000
1%
#20000
0%
0&
#25000
b1 1
1%
#30000
0%
#35000
b10 1
1%
#40000
0%
#45000
b11 1
1%
#50000
0%
#55000
b100 1
1%
#60000
0%
#65000
b101 1
1%
#70000
0%
#75000
b110 1
1%
#80000
0%
#85000
b111 1
1%
#90000
0%
#95000
b10 #
b10 3
b1 $
b1 2
b0 1
b1 6
1%
#100000
0%
#105000
b1 1
1%
#110000
0%
#115000
b10 1
1%
#120000
0%
#125000
b1 "
b1 4
b100 #
b100 3
b0 1
b10 6
1%
#130000
0%
#135000
b1 1
1%
#140000
0%
#145000
b10 1
1%
#150000
0%
#155000
b11 1
1%
#160000
0%
#165000
b100 1
1%
#170000
0%
#175000
b101 1
1%
#180000
0%
#185000
b10 "
b10 4
b10 $
b10 2
b0 1
b11 6
1%
#190000
0%
#195000
b1 1
1%
#200000
0%
#205000
b10 1
1%
#210000
0%
#215000
b1 !
b1 5
b100 "
b100 4
b100 $
b100 2
b0 1
b100 6
1%
#220000
0%
#225000
b1 1
1%
#230000
0%
#235000
b10 1
1%
#240000
0%
#245000
b11 1
1%
#250000
0%
#255000
b10 !
b10 5
b0 1
b101 6
1%
#260000
0%
#265000
b1 1
1%
#270000
0%
#275000
b10 1
1%
#280000
0%
#285000
b100 !
b100 5
b1 #
b1 3
b1 $
b1 2
b0 1
b0 6
1%
#290000
0%
#295000
b1 1
1%
#300000
0%
#305000
b10 1
1%
#310000
0%
#315000
b11 1
1%
#320000
0%
#325000
b100 1
1%
#330000
0%
#335000
b101 1
1%
#340000
0%
#345000
b110 1
1%
#350000
0%
#355000
b111 1
1%
#360000
0%
#365000
b10 #
b10 3
b0 1
b1 6
1%
#370000
0%
#375000
b1 1
1%
#380000
0%
#385000
b10 1
1%
#390000
0%
#395000
b1 "
b1 4
b100 #
b100 3
b0 1
b10 6
1%
#400000
0%
#405000
b1 1
1%
#410000
0%
#415000
b10 1
1%
#420000
0%
#425000
b11 1
1%
#430000
0%
#435000
b100 1
1%
#440000
0%
#445000
b101 1
1%
#450000
0%
#455000
b10 "
b10 4
b10 $
b10 2
b0 1
b11 6
1%
#460000
0%
#465000
b1 1
1%
#470000
0%
#475000
b10 1
1%
#480000
0%
#485000
b1 !
b1 5
b100 "
b100 4
b100 $
b100 2
b0 1
b100 6
1%
#490000
0%
#495000
b1 1
1%
#500000
0%
#505000
b10 1
1%
#510000
0%
#515000
b11 1
1%
#520000
0%
#525000
b10 !
b10 5
b0 1
b101 6
1%
#530000
0%
#535000
b1 1
1%
#540000
0%
#545000
b10 1
1%
#550000
0%
#555000
b100 !
b100 5
b1 #
b1 3
b1 $
b1 2
b0 1
b0 6
1%
#560000
0%
#565000
b1 1
1%
#570000
0%
#575000
b10 1
1%
#580000
0%
#585000
b11 1
1%
#590000
0%
#595000
b100 1
1%
#600000
0%
#605000
b101 1
1%
#610000
0%
#615000
b110 1
1%
#620000
0%
#625000
b111 1
1%
#630000
0%
#635000
b10 #
b10 3
b0 1
b1 6
1%
#640000
0%
#645000
b1 1
1%
#650000
0%
#655000
b10 1
1%
#660000
0%
#665000
b1 "
b1 4
b100 #
b100 3
b0 1
b10 6
1%
#670000
0%
#675000
b1 1
1%
#680000
0%
#685000
b10 1
1%
#690000
0%
#695000
b11 1
1%
#700000
0%
#705000
b100 1
1%
#710000
0%
#715000
b101 1
1%
#720000
0%
#725000
b10 "
b10 4
b10 $
b10 2
b0 1
b11 6
1%
#730000
0%
#735000
b1 1
1%
#740000
0%
#745000
b10 1
1%
#750000
0%
#755000
b1 !
b1 5
b100 "
b100 4
b100 $
b100 2
b0 1
b100 6
1%
#760000
0%
#765000
b1 1
1%
#770000
0%
#775000
b10 1
1%
#780000
0%
#785000
b11 1
1%
#790000
0%
#795000
b10 !
b10 5
b0 1
b101 6
1%
#800000
0%
#805000
b1 1
1%
#810000
0%
#815000
b10 1
1%
#820000
0%
#825000
b100 !
b100 5
b1 #
b1 3
b1 $
b1 2
b0 1
b0 6
1%
#830000
0%
#835000
b1 1
1%
#840000
0%
#845000
b10 1
1%
#850000
0%
#855000
b11 1
1%
#860000
0%
#865000
b100 1
1%
#870000
0%
#875000
b101 1
1%
#880000
0%
#885000
b110 1
1%
#890000
0%
#895000
b111 1
1%
#900000
0%
#905000
b10 #
b10 3
b0 1
b1 6
1%
#910000
0%
#915000
b1 1
1%
#920000
0%
#925000
b10 1
1%
#930000
0%
#935000
b1 "
b1 4
b100 #
b100 3
b0 1
b10 6
1%
#940000
0%
#945000
b1 1
1%
#950000
0%
#955000
b10 1
1%
#960000
0%
#965000
b11 1
1%
#970000
0%
#975000
b100 1
1%
#980000
0%
#985000
b101 1
1%
#990000
0%
#995000
b10 "
b10 4
b10 $
b10 2
b0 1
b11 6
1%
#1000000
0%
#1005000
b1 1
1%
#1010000
0%
#1015000
b10 1
1%
